<?xml version="1.0" standalone="no"?>
<!DOCTYPE svg PUBLIC "-//W3C//DTD SVG 1.1//EN" "http://www.w3.org/Graphics/SVG/1.1/DTD/svg11.dtd">
<svg xmlns="http://www.w3.org/2000/svg">
<metadata>Copyright (C) 2014 by original authors @ fontello.com</metadata>
<defs>
<font id="bs2015" horiz-adv-x="1000" >
<font-face font-family="bs2015" font-weight="400" font-stretch="normal" units-per-em="1000" ascent="850" descent="-150" />
<missing-glyph horiz-adv-x="1000" />
<glyph glyph-name="estandar" unicode="&#xe800;" d="m0 600q0 33 21 59t51 33l407 94q11 1 21 1t22-1l406-94q31-8 51-33t21-59-21-59-51-33l-84-19 0-264q0-68-84-112t-260-44-260 44-84 112l0 264-84 19q-31 8-51 33t-21 59z m63 0q0-25 23-31l406-94 16 0 406 94q23 6 23 31t-23 31l-406 94-16 0-406-94q-23-6-23-31z m156-375q0-20 29-40t97-37 155-17 155 17 97 37 29 40l0 250-259-61q-12-1-22-1t-21 1l-260 61 0-250z m656-250q0 31 20 78t42 47 43-47 20-78q0-25-19-44t-44-19-43 19-19 44z m31 188l0 281q0 13 9 22t22 9 23-9 9-22l0-281q0-14-9-23t-23-9-22 9-9 23z" horiz-adv-x="1000" />
<glyph glyph-name="campamento" unicode="&#xe801;" d="m258 396l-215-405h65l175 330 175-330h65l0 0-215 405c-10 19-40 19-50 0z m18-286l-64-119h19 104 19l0 0-64 119c-2 6-12 6-14 0z m339 52l-73-138 20-33h138 27l1 0-91 171c-4 8-18 8-22 0z m37 404c-5 10-15 16-25 16-11 0-21-6-26-16l-175-330 33-62 168 317 265-500h65l-305 575z" horiz-adv-x="1000" />
<glyph glyph-name="hotel" unicode="&#xe802;" d="m348 617h-90c-12 0-20-9-20-20v-147c0-11 8-20 20-20h90c11 0 20 9 20 20v147c0 11-9 20-20 20z m-20-147h-51v107h51v-107z m231 147h-91c-11 0-20-9-20-20v-147c0-11 9-20 20-20h91c11 0 20 9 20 20v147c0 11-9 20-20 20z m-20-147h-51v107h51v-107z m-191-66h-90c-12 0-20-8-20-19v-147c0-11 8-20 20-20h90c11 0 20 9 20 20v147c0 11-9 19-20 19z m-20-146h-51v107h51v-107z m231 146h-91c-11 0-20-8-20-19v-147c0-11 9-20 20-20h91c11 0 20 9 20 20v147c0 11-9 19-20 19z m-20-146h-51v107h51v-107z m328 298h-59-93-48v78c0 32-26 59-59 59h-396c-33 0-59-27-59-59v-584c0-33 26-59 59-59h396c33 0 59 26 59 59v466h28v-232c0-11 9-20 20-20h152c11 0 19 9 19 20v252c0 11-8 20-19 20z m-380-512h-57v68h57v-68z m-97 0h-57v68h57v-68z m237 6c0-11-8-19-19-19h-81v101c0 11-9 19-20 19h-194c-11 0-20-8-20-19v-101h-81c-11 0-19 8-19 19v584c0 10 8 19 19 19h396c11 0 19-9 19-19v-98-486l0 0z m220 253h-112v213h73 39v-213z m-70 119c-4 0-7 3-7 7v27c0 4-3 7-7 7h-8c-4 0-7-3-7-7v-93c0-3 3-6 7-6h8c4 0 7 3 7 6v34c0 4 3 7 7 7h28c3 0 6-3 6-7v-34c0-3 3-6 7-6h9c3 0 6 3 6 6v93c0 4-3 7-6 7h-9c-4 0-7-3-7-7v-27c0-4-3-7-6-7h-28z" horiz-adv-x="1000" />
<glyph glyph-name="ruta" unicode="&#xe803;" d="m829 522l-102 101c-2 2-4 3-6 3h-181v66c0 5-18 9-23 9-5 0-23-4-23-9v-66h-203c-5 0-9-4-9-9v-203c0-5 4-10 9-10h203v-54h-214c-3 0-5-1-7-3l-102-101c-3-4-3-10 0-13l102-102c2-2 4-3 7-3h214v-97h-92c-5 0-10-11-10-16 0-5 5-16 10-16h231c5 0 9 11 9 16 0 5-4 16-9 16h-93v97h169c5 0 9 5 9 10v203c0 5-4 9-9 9h-169v54h181c2 0 4 1 6 3l102 102c3 3 3 9 0 13z m-114-79h-402v144h402l67-72-67-72z m-429-132h402v-143h-402l-67 71 67 72z" horiz-adv-x="1000" />
<glyph glyph-name="apartamento" unicode="&#xe804;" d="m0-88l0 94q0 20 18 39l379 379q-22 57-22 114 0 128 92 220t221 92 220-92 92-220-92-221-220-92q-57 0-114 22l-74-73 0-74q0-25-19-44t-43-18l-63 0 0-63q0-25-19-44t-43-18l-73 0-45-45q-17-18-39-18l-93 0q-26 0-44 19t-19 44z m63 0l87 0 45 45q18 18 45 18l73 0 0 63q0 25 18 43t44 19l63 0 0 74q0 26 17 43l61 61 35 35 10 10q60-35 127-35 103 0 176 73t73 177-73 176-176 73-177-73-73-176q0-67 35-127l-45-45-365-364 0-90z m562 713q0 4 2 10 23 65 88 88 15 6 27-4 74-53 127-127 6-8 6-17 0-4-2-10-23-65-88-88-15-6-27 4-74 53-127 127-6 8-6 17z m31 0q51-70 119-119 51 18 69 69-49 68-119 119-51-18-69-69z" horiz-adv-x="1000" />
<glyph glyph-name="familia-voluntaria" unicode="&#xe805;" d="m549 686c0 38 31 70 70 70 38 0 69-32 69-70s-31-69-69-69c-39 0-70 31-70 69z m25 0c0-25 20-45 45-45 24 0 45 20 45 45 0 25-21 45-45 45-25 0-45-20-45-45z m340-544c0-116-94-209-209-209-115 0-209 93-209 209 0 50 19 97 49 133l0 161-6-37c-4-19-20-32-38-32-22 0-39 17-39 38 0 2 0 3 0 4 0 2 0 4 0 6l32 166c3 18 19 32 38 32h174c19 0 35-14 38-33l31-165c0-2 0-4 0-6 0-1 0-2 0-4 0-21-17-38-38-38-19 0-35 13-38 31l-6 38 0-86c4 0 8 0 12 0 115 0 209-93 209-208z m-354 417c2 0 4-1 6-3 1-1 2-3 2-6l0-252c9 9 20 16 31 23v12c0 4 3 8 8 8h24c2 0 4-1 5-3 11 4 22 7 33 9l0 203c0 3 1 5 3 6 1 2 3 3 6 3h12c4 0 7-3 8-7l24-150c1-7 7-12 15-12 8 0 15 7 15 15 0 2 0 3-1 5 0 1 0 3 0 4l-30 162c-1 8-8 13-15 13h-175c-7 0-13-5-15-12l-30-163c0-1 0-3 0-4-1-2-1-3-1-5 0-8 7-15 16-15 7 0 13 5 15 12l24 150c0 4 4 7 8 7h12z m285-373c0 4-1 9-5 12l-24 25c-4 3-8 5-13 5s-9-2-12-5l-111-111-61 61c-3 4-8 6-12 6s-9-2-13-6l-24-24c-4-3-5-8-5-13 0-4 1-8 5-12l98-98c3-3 8-5 12-5 5 0 10 2 13 5l147 147c4 4 5 8 5 13z m-631 500c0 38 32 70 70 70 38 0 70-32 70-70s-32-69-70-69-70 31-70 69z m25 0c0-25 20-45 45-45 25 0 45 20 45 45 0 25-20 45-45 45-25 0-45-20-45-45z m201-277c1-1 1-2 1-4 0-21-18-38-39-38-9 0-17 3-24 8l13-63c2-3 2-8 2-13 0-20-15-37-35-39v-130c0-21-17-39-38-39-16 0-30 10-36 24-6-14-20-24-36-24-21 0-38 18-38 39v131c-20 1-35 18-35 38 0 5 0 10 2 14l13 62c-7-5-15-8-24-8-21 0-39 17-39 38 0 2 0 3 1 4-1 3-1 5 0 7l47 166c3 17 19 31 38 31h142c19 0 35-14 38-32l47-165c1-2 1-4 0-7z m-23-4c0 2 0 3 0 5-1 1-1 2 0 4l-47 162c0 0 0 0 0 0-1 8-8 13-15 13h-142c-7 0-14-5-15-13 0 0 0 0 0 0l-47-162c1-2 1-3 0-4 0-2 0-3 0-5 0-8 6-15 15-15 7 0 14 5 15 12l41 151c0 3 4 6 7 6h12c3 0 5-1 7-3 1-2 2-5 1-7l-49-242c-1-1-1-1-1-2-1-2-1-4-1-6 0-8 7-15 15-15h12c4 0 8-4 8-9v-145c0-8 7-15 15-15 9 0 16 7 16 15v145c0 5 4 9 8 9h24c5 0 8-4 8-9v-145c0-8 7-15 16-15 8 0 15 7 15 15v145c0 5 4 9 8 9h12c8 0 15 7 15 15 0 2 0 4-1 6 0 1 0 1 0 2l-50 242c-1 2 0 5 1 7 2 2 4 3 7 3h12c3 0 7-3 8-6l40-150c1-8 8-13 15-13 9 0 15 7 15 15z" horiz-adv-x="1000" />
<glyph glyph-name="residencia" unicode="&#xe806;" d="m935 328l-95 86v206c0 9-7 16-16 16h-83c-4 0-9-2-12-5-3-3-4-7-4-11l0-101-207 188c-6 5-15 5-22 0l-431-380c-6-5-7-13-4-20 3-6 8-8 18-8l96 0v-274c0-3 0-16 9-26 5-5 12-10 25-10 23 0 214 0 214 0 9 0 16 8 16 17l0 176c0 2 0 8 2 10 2 2 5 2 7 2h89c4 0 9-1 12-4 3-3 3-8 3-9l0-175c0-4 1-8 4-11 3-3 7-5 12-5h209c14 0 23 6 28 11 11 12 11 28 11 29v269h105c8 0 14 4 18 10 3 7 2 14-4 19z m-127 276v-161l-51 47 0 114h51z m-26-269c-5 0-10-1-13-3-3-3-5-7-5-12v-268c0-2-1-5-2-6-1-1-3-1-4-1h-160l1 147c0 2 1 31-11 44-5 5-16 12-33 12h-128c-23 0-30-10-33-16-2-16-2-36-1-40l0-147c-44 0-146 0-163 0-1 0-1 0-1 0 0 0 0 0 0 0-1 0-1 1-1 2v273c0 5-2 9-5 12-4 3-6 3-13 3h-61l358 315 202-183v-1h1l150-131-78 0z" horiz-adv-x="1000" />
<glyph glyph-name="familia" unicode="&#xe807;" d="m701 589c45 0 83 37 83 83s-38 84-83 84c-46 0-84-38-84-84s38-83 84-83z m0 137c29 0 53-24 53-54s-24-53-53-53c-30 0-54 24-54 53s24 54 54 54z m-401-137c46 0 83 37 83 83s-37 84-83 84c-46 0-84-38-84-84s38-83 84-83z m0 137c29 0 53-24 53-54s-24-53-53-53c-30 0-54 24-54 53s24 54 54 54z m588-385c0 2 0 4 0 7l-37 198c-4 22-23 38-46 38h-209c-23 0-42-16-45-38l-38-198c0-3 0-5 0-7 0-2 0-3 0-5 0-26 21-46 46-46 22 0 42 16 46 38l7 44 0-366c0-25 20-46 46-46 19 0 35 12 42 28 8-16 24-28 43-28 26 0 46 21 46 46l0 366 7-44c4-22 24-38 46-38 25 0 46 20 46 46 0 2 0 3 0 5z m-46-23c-9 0-17 6-18 14l-29 179c-1 5-5 9-10 9h-14c-3 0-5-1-7-3-2-2-3-5-3-7l1-504c0-10-9-18-19-18s-18 8-18 18v243c0 5-5 10-10 10h-29c-5 0-10-5-10-10v-243c0-10-8-18-18-18s-19 8-19 18l1 504c0 2-1 5-3 7-2 2-4 3-7 3h-15c-4 0-8-4-9-9l-29-178c-1-9-9-15-18-15-10 0-18 8-18 18 0 2 0 3 0 5s1 4 0 6l37 194c1 9 9 16 18 16h209c9 0 17-7 18-16l37-194c-1-2-1-4-1-6 1-2 1-3 1-5 0-10-8-18-18-18z m-355 31l-57 197c-4 22-23 38-46 38h-169c-23 0-42-16-46-37l-56-198c-1-3-1-5-1-8 0-2 0-3 0-5 0-26 21-46 46-46 11 0 21 3 29 9l-15-73c-2-6-4-11-4-17 0-24 19-44 43-46v-157c0-25 20-46 46-46 19 0 36 12 43 28 7-16 23-28 42-28 26 0 47 21 47 46v157c23 2 42 22 42 46 0 6-1 11-3 15l-16 76c8-7 18-10 29-10 25 0 46 20 46 46 0 2 0 3 0 5 0 3 0 5 0 8z m-46-31c-9 0-17 6-18 15l-49 179c-1 5-5 8-9 8h-14c-3 0-6-2-8-4-2-2-3-5-2-8l60-290c0-1 0-1 0-2 1-2 2-5 2-7 0-10-8-19-19-19h-13c-6 0-10-4-10-10v-174c0-10-9-18-19-18-10 0-18 8-18 18v174c0 6-5 10-10 10h-29c-5 0-9-4-9-10v-174c0-10-9-18-19-18-10 0-18 8-18 18v174c0 6-5 10-10 10h-14c-10 0-19 9-19 19 0 2 1 5 2 7 0 1 0 1 0 2l60 290c1 3 0 6-2 8-2 2-4 4-7 4h-15c-4 0-8-3-9-8l-49-179c-1-9-9-15-18-15-10 0-18 8-18 18 0 1 0 3 1 5 0 2 0 4 0 5l55 194c0 0 1 1 1 1 1 9 9 16 18 16h169c9 0 17-7 19-16 0 0 0-1 0-1l55-194c0-2 0-3 1-5 0-2 0-4 0-5 0-10-8-18-18-18z" horiz-adv-x="1000" />
<glyph glyph-name="chat" unicode="&#xe808;" d="m300 376c0 18 15 34 34 34 19 0 35-16 35-34 0-19-16-35-35-35-19 0-34 16-34 35z m153-35c19 0 34 16 34 35 0 18-15 34-34 34-19 0-34-16-34-34 0-19 15-35 34-35z m118 0c19 0 34 16 34 35 0 18-15 34-34 34-19 0-34-16-34-34 0-19 15-35 34-35z m311-105h-134v-74h-280l-194-193v193h-140v426h72v128h676v-480h0z m-194 291h-493v-304h140v-108l107 108h246l0 304 0 0z m133 128h-554v-67h481v-291h73v358h0z" horiz-adv-x="1016" />
<glyph glyph-name="info" unicode="&#xe80e;" d="m400 219v-170h-98v170h-163v87h163v169h98v-169h163v-87h-163z m240 166h-126v83h235v-360h128v-83h-378v83h141v277z m117 205c0-10-1-19-5-28-3-8-8-15-14-22-7-6-14-11-22-14-9-4-18-6-28-6s-19 2-28 6c-8 3-16 8-22 14-6 7-11 14-15 22s-5 18-5 28 2 18 5 27c4 8 9 15 15 22 6 6 14 11 22 15 9 4 18 5 28 5s19-1 28-5c8-4 15-9 22-15 6-7 11-14 14-22 4-9 5-18 5-27z" horiz-adv-x="1016" />
</font>
</defs>
</svg>